{
  "Main" : {
    "title" : {
      "type" : "StructuredText",
      "config" : {
        "single" : "heading1",
        "label" : "title"
      }
    },
    "lead" : {
      "type" : "StructuredText",
      "config" : {
        "single" : "heading2",
        "label" : "Lead"
      }
    },
    "body" : {
      "type" : "StructuredText",
      "config" : {
        "multi" : "paragraph, preformatted, heading3, heading4, heading5, heading6, strong, em, hyperlink, embed",
        "allowTargetBlank" : true,
        "label" : "Body"
      }
    }
  }
}